{
  "images" : [
    {
      "idiom" : "iphone",
      "scale" : "1x"
    },
    {
      "idiom" : "iphone",
      "filename" : "icon_cart_box_right@2x~iphone.png",
      "scale" : "2x"
    },
    {
      "idiom" : "iphone",
      "filename" : "icon_cart_box_right@3x~iphone.png",
      "scale" : "3x"
    }
  ],
  "info" : {
    "version" : 1,
    "author" : "xcode"
  }
}